<?xml version="1.0" encoding="UTF-8" standalone="no"?>
<svg
   xmlns:dc="http://purl.org/dc/elements/1.1/"
   xmlns:cc="http://creativecommons.org/ns#"
   xmlns:rdf="http://www.w3.org/1999/02/22-rdf-syntax-ns#"
   xmlns:svg="http://www.w3.org/2000/svg"
   xmlns="http://www.w3.org/2000/svg"
   id="svg5457"
   version="1.1"
   viewBox="0 0 16 16">
  <metadata
     id="metadata5463">
    <rdf:RDF>
      <cc:Work
         rdf:about="">
        <dc:format>image/svg+xml</dc:format>
        <dc:type
           rdf:resource="http://purl.org/dc/dcmitype/StillImage" />
        <dc:title></dc:title>
      </cc:Work>
    </rdf:RDF>
  </metadata>
  <defs
     id="defs5461">
    <marker
       style="overflow:visible"
       id="TriangleOutM"
       refX="0.0"
       refY="0.0"
       orient="auto">
      <path
         transform="scale(0.4)"
         style="fill-rule:evenodd;stroke:#da4453;stroke-width:1pt;stroke-opacity:1;fill:#da4453;fill-opacity:1"
         d="M 5.77,0.0 L -2.88,5.0 L -2.88,-5.0 L 5.77,0.0 z "
         id="path5662" />
    </marker>
    <clipPath
       id="clipPath5475">
      <path
         d="m0 706.465h1490.926v-706.465h-1490.926v706.465"
         id="path5473" />
    </clipPath>
    <clipPath
       id="clipPath5479">
      <path
         d="m22.1953 686.117h1447.7347v-667.1902h-1447.7347v667.1902"
         id="path5477" />
    </clipPath>
  </defs>
  <style
     id="style5453"
     type="text/css">.ColorScheme-Text {
            color:#232629;
        }</style>
  <path
     style="color:#232629;fill:currentColor;stroke-width:1"
     id="path5455"
     d="M 0.28510937,0.27767264 V 1.5276726 H 8.1270796 V 0.27767264 Z"
     class="ColorScheme-Text" />
  <path
     class="ColorScheme-Text"
     d="M 1.9026467,3.735337 V 4.9853357 H 9.7446172 V 3.735337 Z"
     id="path5465"
     style="color:#232629;fill:#da4453;fill-opacity:1;stroke-width:1" />
  <path
     style="color:#232629;fill:currentColor;stroke-width:1"
     id="path5467"
     d="m 0.28510937,10.759447 v 1.25 H 8.1270796 v -1.25 z"
     class="ColorScheme-Text" />
  <path
     class="ColorScheme-Text"
     d="m 0.28510937,14.253372 v 1.25 H 8.1270796 v -1.25 z"
     id="path5469"
     style="color:#232629;fill:currentColor;stroke-width:1" />
  <path
     style="color:#232629;fill:currentColor;stroke-width:1"
     id="path5471"
     d="m 0.28510937,7.2655219 v 1.25 H 8.1270796 v -1.25 z"
     class="ColorScheme-Text" />
  <g
     style="stroke-width:0.82132894"
     transform="matrix(1.2175367,0,0,1.2175414,-2.7791755,-0.75602017)"
     id="g5817">
    <path
       id="path5515"
       d="M 11.025391,5.3378906 10.316406,6.0449219 12.964844,8.6914062 13.671875,7.984375 Z"
       style="color:#000000;font-style:normal;font-variant:normal;font-weight:normal;font-stretch:normal;font-size:medium;line-height:normal;font-family:sans-serif;font-variant-ligatures:normal;font-variant-position:normal;font-variant-caps:normal;font-variant-numeric:normal;font-variant-alternates:normal;font-feature-settings:normal;text-indent:0;text-align:start;text-decoration:none;text-decoration-line:none;text-decoration-style:solid;text-decoration-color:#000000;letter-spacing:normal;word-spacing:normal;text-transform:none;writing-mode:lr-tb;direction:ltr;text-orientation:mixed;dominant-baseline:auto;baseline-shift:baseline;text-anchor:start;white-space:normal;shape-padding:0;clip-rule:nonzero;display:inline;overflow:visible;visibility:visible;opacity:1;isolation:auto;mix-blend-mode:normal;color-interpolation:sRGB;color-interpolation-filters:linearRGB;solid-color:#000000;solid-opacity:1;vector-effect:none;fill:#da4453;fill-opacity:1;fill-rule:nonzero;stroke:none;stroke-width:0.8226223;stroke-linecap:butt;stroke-linejoin:miter;stroke-miterlimit:4;stroke-dasharray:none;stroke-dashoffset:0;stroke-opacity:1;color-rendering:auto;image-rendering:auto;shape-rendering:auto;text-rendering:auto;enable-background:accumulate" />
    <path
       id="path5823"
       d="M 14.952621,9.9727934 11.085739,8.9387917 13.91862,6.1059105 Z"
       style="fill:#da4453;fill-opacity:1;fill-rule:evenodd;stroke:#da4453;stroke-width:0.32904891pt;stroke-opacity:1" />
  </g>
</svg>
