<?xml version="1.0" encoding="UTF-8" standalone="no"?>
<svg
   viewBox="0 0 16 16"
   version="1.1"
   id="svg12258"
   sodipodi:docname="export.svg"
   inkscape:version="1.2.1 (9c6d41e410, 2022-07-14)"
   xmlns:inkscape="http://www.inkscape.org/namespaces/inkscape"
   xmlns:sodipodi="http://sodipodi.sourceforge.net/DTD/sodipodi-0.dtd"
   xmlns="http://www.w3.org/2000/svg"
   xmlns:svg="http://www.w3.org/2000/svg">
  <sodipodi:namedview
     id="namedview12260"
     pagecolor="#ffffff"
     bordercolor="#000000"
     borderopacity="0.25"
     inkscape:showpageshadow="2"
     inkscape:pageopacity="0.0"
     inkscape:pagecheckerboard="0"
     inkscape:deskcolor="#d1d1d1"
     showgrid="false"
     inkscape:zoom="47.375"
     inkscape:cx="6.9973615"
     inkscape:cy="8"
     inkscape:window-width="1080"
     inkscape:window-height="1849"
     inkscape:window-x="-8"
     inkscape:window-y="-8"
     inkscape:window-maximized="1"
     inkscape:current-layer="svg12258" />
  <defs
     id="defs12254">
    <style
       type="text/css"
       id="current-color-scheme">
            .ColorScheme-Text {
                color:#232629;
            }
        </style>
  </defs>
  <path
     style="fill:#ebf6ff;stroke-width:1.00157;paint-order:markers fill stroke;stop-color:#000000"
     d="M 13,5 10,2 H 3 v 12 h 10"
     id="path32738"
     sodipodi:nodetypes="ccccc" />
  <path
     d="M 7.0000002,12 H 11.0859 L 9.46484,13.6211 10.1719,14.3281 13,11.5 10.1719,8.67187 9.46484,9.37891 11.0859,11 H 7.0000002 Z"
     style="color:#232629;fill:#3daee9;fill-opacity:1;stroke:none"
     id="path12387" />
  <path
     class="ColorScheme-Text"
     style="fill:currentColor;fill-opacity:1;stroke:none"
     d="M 4,13 V 3 h 5 v 3 h 3 v 3 h 1 V 5 L 10,2 H 3 v 12 h 5 v -1 z"
     id="path12256"
     sodipodi:nodetypes="cccccccccccccc" />
</svg>
