<?xml version="1.0" encoding="UTF-8" standalone="no"?>
<svg
   id="svg836"
   version="1.1"
   viewBox="0 0 16 16"
   sodipodi:docname="newbond.svg"
   inkscape:version="1.2 (dc2aedaf03, 2022-05-15)"
   xmlns:inkscape="http://www.inkscape.org/namespaces/inkscape"
   xmlns:sodipodi="http://sodipodi.sourceforge.net/DTD/sodipodi-0.dtd"
   xmlns="http://www.w3.org/2000/svg"
   xmlns:svg="http://www.w3.org/2000/svg"
   xmlns:rdf="http://www.w3.org/1999/02/22-rdf-syntax-ns#"
   xmlns:cc="http://creativecommons.org/ns#"
   xmlns:dc="http://purl.org/dc/elements/1.1/">
  <sodipodi:namedview
     pagecolor="#ffffff"
     bordercolor="#666666"
     borderopacity="1"
     objecttolerance="10"
     gridtolerance="10"
     guidetolerance="10"
     inkscape:pageopacity="0"
     inkscape:pageshadow="2"
     inkscape:window-width="3840"
     inkscape:window-height="2131"
     id="namedview845"
     showgrid="false"
     inkscape:zoom="41.7193"
     inkscape:cx="13.147392"
     inkscape:cy="0.88687969"
     inkscape:window-x="0"
     inkscape:window-y="0"
     inkscape:window-maximized="1"
     inkscape:current-layer="svg836"
     inkscape:showpageshadow="2"
     inkscape:pagecheckerboard="0"
     inkscape:deskcolor="#d1d1d1" />
  <metadata
     id="metadata842">
    <rdf:RDF>
      <cc:Work
         rdf:about="">
        <dc:format>image/svg+xml</dc:format>
        <dc:type
           rdf:resource="http://purl.org/dc/dcmitype/StillImage" />
      </cc:Work>
    </rdf:RDF>
  </metadata>
  <defs
     id="defs840" />
  <style
     id="current-color-scheme"
     type="text/css">
        .ColorScheme-Text {
            color:#232629;
        }
    </style>
  <path
     id="path844"
     d="M 3.8304635,0.04850652 V 7.4572933"
     style="fill:none;stroke:#232629;stroke-width:1;stroke-linecap:butt;stroke-linejoin:miter;stroke-miterlimit:4;stroke-dasharray:none;stroke-opacity:1" />
  <path
     style="fill:none;stroke:#232629;stroke-width:1;stroke-linecap:butt;stroke-linejoin:miter;stroke-miterlimit:4;stroke-dasharray:none;stroke-opacity:1"
     d="M 0.12607012,3.7528999 H 7.5348567"
     id="path846" />
  <path
     id="ellipse825"
     d="M 10.405106,5.9029584 5.653605,10.654459 c -0.4991912,0.501737 -0.067646,2.069047 1.1647699,3.301604 1.2327869,1.233265 2.801002,1.665535 3.3029851,1.166152 l 4.751501,-4.751501 z"
     style="opacity:1;fill:#000000;fill-opacity:0.05837971;stroke:#232629;stroke-width:1;stroke-linecap:round;stroke-linejoin:miter;stroke-miterlimit:4;stroke-dasharray:none;stroke-dashoffset:0;stroke-opacity:1;paint-order:fill markers stroke"
     inkscape:connector-curvature="0" />
  <path
     id="path823"
     d="M 15.224635,10.01809 C 14.723747,10.518978 13.344797,9.9521276 12.111267,8.7185982 10.877738,7.4850685 10.256742,6.051973 10.757629,5.5510854 c 0.500888,-0.5008877 2.015202,-0.015255 3.248731,1.218274 1.23353,1.2335293 1.719162,2.7478435 1.218275,3.2487306 z"
     style="opacity:1;fill:#eeeeee;fill-opacity:1;stroke:#232629;stroke-width:1;stroke-linecap:butt;stroke-linejoin:miter;stroke-miterlimit:4;stroke-dasharray:none;stroke-dashoffset:0;stroke-opacity:1;paint-order:fill markers stroke"
     inkscape:connector-curvature="0" />
</svg>
