<?xml version="1.0" encoding="UTF-8" standalone="no"?>
<!-- Created with Inkscape (http://www.inkscape.org/) -->

<svg
   width="64"
   height="64"
   viewBox="0 0 16.933333 16.933333"
   version="1.1"
   id="svg3700"
   xml:space="preserve"
   inkscape:version="1.2.1 (9c6d41e410, 2022-07-14)"
   sodipodi:docname="favicon.svg"
   xmlns:inkscape="http://www.inkscape.org/namespaces/inkscape"
   xmlns:sodipodi="http://sodipodi.sourceforge.net/DTD/sodipodi-0.dtd"
   xmlns="http://www.w3.org/2000/svg"
   xmlns:svg="http://www.w3.org/2000/svg"><sodipodi:namedview
     id="namedview3702"
     pagecolor="#ffffff"
     bordercolor="#000000"
     borderopacity="0.25"
     inkscape:showpageshadow="2"
     inkscape:pageopacity="0.0"
     inkscape:pagecheckerboard="0"
     inkscape:deskcolor="#d1d1d1"
     inkscape:document-units="mm"
     showgrid="false"
     inkscape:zoom="5.5446689"
     inkscape:cx="41.481287"
     inkscape:cy="32.643969"
     inkscape:window-width="1080"
     inkscape:window-height="1849"
     inkscape:window-x="-8"
     inkscape:window-y="-8"
     inkscape:window-maximized="1"
     inkscape:current-layer="layer1" /><defs
     id="defs3697"><style
       type="text/css"
       id="current-color-scheme">
      .ColorScheme-Text {
        color:#4d4d4d;
      }
      </style></defs><g
     inkscape:label="Layer 1"
     inkscape:groupmode="layer"
     id="layer1"><circle
       style="vector-effect:none;fill:#f5f5f5;fill-opacity:1;stroke:none;stroke-width:0.924781;stroke-linecap:butt;stroke-linejoin:miter;stroke-miterlimit:4;stroke-dasharray:none;stroke-dashoffset:0;stroke-opacity:1"
       id="path858"
       cx="0.08254201"
       cy="11.829461"
       r="2.0863204"
       transform="rotate(-45)" /><circle
       style="vector-effect:none;fill:#f5f5f5;fill-opacity:1;stroke:none;stroke-width:0.73211;stroke-linecap:butt;stroke-linejoin:miter;stroke-miterlimit:4;stroke-dasharray:none;stroke-dashoffset:0;stroke-opacity:1"
       id="path858-7"
       cx="5.6145458"
       cy="11.829461"
       r="1.6516619"
       transform="rotate(-45)" /><circle
       style="vector-effect:none;fill:#f5f5f5;fill-opacity:1;stroke:none;stroke-width:0.73211;stroke-linecap:butt;stroke-linejoin:miter;stroke-miterlimit:4;stroke-dasharray:none;stroke-dashoffset:0;stroke-opacity:1"
       id="circle915"
       cx="15.817879"
       cy="5.8432393"
       r="1.6516619"
       transform="rotate(15)" /><circle
       r="1.6516619"
       cy="-5.9862075"
       cx="15.735363"
       id="circle917"
       style="fill:#f5f5f5;fill-opacity:1;stroke:none;stroke-width:0.73211;stroke-linecap:butt;stroke-linejoin:miter;stroke-miterlimit:4;stroke-dasharray:none;stroke-dashoffset:0;stroke-opacity:1"
       transform="rotate(75)" /><circle
       style="vector-effect:none;fill:#f5f5f5;fill-opacity:1;stroke:none;stroke-width:0.73211;stroke-linecap:butt;stroke-linejoin:miter;stroke-miterlimit:4;stroke-dasharray:none;stroke-dashoffset:0;stroke-opacity:1"
       id="circle919"
       cx="-4.6713262"
       cy="5.9862075"
       r="1.6516619"
       transform="rotate(-105)" /><circle
       r="1.6516619"
       cy="-5.8432384"
       cx="-4.7539744"
       id="circle921"
       style="vector-effect:none;fill:#f5f5f5;fill-opacity:1;stroke:none;stroke-width:0.73211;stroke-linecap:butt;stroke-linejoin:miter;stroke-miterlimit:4;stroke-dasharray:none;stroke-dashoffset:0;stroke-opacity:1"
       transform="rotate(-165)" /><circle
       style="vector-effect:none;fill:#f5f5f5;fill-opacity:1;stroke:none;stroke-width:0.73211;stroke-linecap:butt;stroke-linejoin:miter;stroke-miterlimit:4;stroke-dasharray:none;stroke-dashoffset:0;stroke-opacity:1"
       id="circle923"
       cx="5.4494772"
       cy="-11.829468"
       r="1.6516619"
       transform="rotate(135)" /><circle
       style="vector-effect:none;fill:#f5f5f5;fill-opacity:1;stroke:none;stroke-width:0.576436;stroke-linecap:butt;stroke-linejoin:miter;stroke-miterlimit:4;stroke-dasharray:none;stroke-dashoffset:0;stroke-opacity:1"
       id="circle915-9"
       cx="18.23834"
       cy="10.442813"
       r="1.3004436"
       transform="rotate(15)" /><circle
       style="vector-effect:none;fill:#f5f5f5;fill-opacity:1;stroke:none;stroke-width:0.576436;stroke-linecap:butt;stroke-linejoin:miter;stroke-miterlimit:4;stroke-dasharray:none;stroke-dashoffset:0;stroke-opacity:1"
       id="circle915-9-1"
       cx="2.5908542"
       cy="1.569224"
       r="1.3004435"
       transform="rotate(15)" /></g></svg>
